…
``` r
fish_long <- 
  pivot_longer(fish, speciesUpstream:speciesDownstream,
               names_to = "location",
               values_to = "species") %>% 
  mutate(location = str_remove(location, c("species"))) %>% 
  print()
```

    ## # A tibble: 24 x 3
    ##    tributary location   species
    ##    <chr>     <chr>        <dbl>
    ##  1 Içá       Upstream        14
    ##  2 Içá       Downstream      19
    ##  3 Jutaí     Upstream        11
    ##  4 Jutaí     Downstream      18
    ##  5 Japurá    Upstream         8
    ##  6 Japurá    Downstream       8
    ##  7 Coari     Upstream         5
    ##  8 Coari     Downstream       7
    ##  9 Purus     Upstream        10
    ## 10 Purus     Downstream      16
    ## # … with 14 more rows

``` r
fish_long
```

    ## # A tibble: 24 x 3
    ##    tributary location   species
    ##    <chr>     <chr>        <dbl>
    ##  1 Içá       Upstream        14
    ##  2 Içá       Downstream      19
    ##  3 Jutaí     Upstream        11
    ##  4 Jutaí     Downstream      18
    ##  5 Japurá    Upstream         8
    ##  6 Japurá    Downstream       8
    ##  7 Coari     Upstream         5
    ##  8 Coari     Downstream       7
    ##  9 Purus     Upstream        10
    ## 10 Purus     Downstream      16
    ## # … with 14 more rows
…
    ## 
    ## ── Column specification ────────────────────────────────────────────────────────
    ## cols(
    ##   crabType = col_character(),
    ##   bodyTemperature = col_double()
    ## )

``` r
crabs
```

    ## # A tibble: 85 x 2
    ##    crabType bodyTemperature
    ##    <chr>              <dbl>
    ##  1 female               1.9
    ##  2 female               1.6
    ##  3 female               1.4
    ##  4 female               1.1
    ##  5 female               1.6
    ##  6 female               1.8
    ##  7 female               1.9
    ##  8 female               1.7
    ##  9 female               1.5
    ## 10 female               1.8
    ## # … with 75 more rows
…
